        [
           {
            "color" : "#DECD68",
            "labbuttoncolor" : "#ddcc68",
             "bordercolor": "#ddcc68",
           "spancolor": "#c4b45c"
           },
           {
            "color" : "pink",
            "labButtonColor" : "#feb4d1",
            "bordercolor": "#feb4d1",
            "spancolor": "#cf95ac"
           },
           {
            "color" : "grey",
            "labButtonColor" : "#dfe5e7",
             "bordercolor": "#dfe5e7",
            "spancolor": "#b5babc"
           }, 
           {
            "color" : "lightGreen",
            "labButtonColor" : "#b3c99b",
            "bordercolor": "#b3c99b",
            "spancolor": "#9bae86"
           }, 
            {
            "color" : "orange",
            "labButtonColor" : "#faa082",
            "bordercolor": "#faa082",
           "spancolor": "#cf846a"
           }, 
            {
            "color" : "blue",
            "labButtonColor" : "#9dd6f4",
            "bordercolor": "#9dd6f4",
           "spancolor": "#81aec6"
           }

        ]
